192.168.125.152 4
192.168.125.94 2
192.168.125.31 1
192.168.125.38 1
192.168.125.39 1
192.168.125.58 1
192.168.125.63 1
192.168.125.66 1
192.168.125.128 1
192.168.125.164 1
192.168.125.189 1
192.168.125.204 1
192.168.125.217 1
192.168.125.230 1
192.168.125.233 1
192.168.125.251 1
